Avalições Auditor Crawler
…
        #tempo das avaliações
        median_duration_min = median(durationMin),
        median_duration = median(duration),
        max_duration = max(duration),
        max_durationMin = max(durationMin),
        median_num_access_node = median(contNodeNumberAccess),
        max_num_access_node = max(contNodeNumberAccess),
        all_access_node = sum(contNodeNumberAccess),
        combination = last(fornecedor),
        tipo_exp = last(tipo_exp)
    )

metricas_result 

## # A tibble: 37 x 18
## # Groups:   municipio, aproach [37]
##    municipio aproach date                tp_total fn_total fp_total recall
##    <chr>     <chr>   <dttm>                 <int>    <int>    <int>  <dbl>
##  1 Alcantil  <NA>    NA                         0       NA       NA NA    
##  2 Arara     <NA>    NA                         0       NA       NA NA    
##  3 Areia     <NA>    NA                         0       NA       NA NA    
##  4 Areia de… <NA>    NA                         0       NA       NA NA    
##  5 Barra de… <NA>    NA                         0       NA       NA NA    
##  6 Bayeux    <NA>    NA                         0       NA       NA NA    
##  7 Belém do… bandit  2019-11-25 16:38:09       39        2        3  0.951
##  8 Belém do… bfs     2019-11-25 16:38:41       39        2        3  0.951
##  9 Belém do… <NA>    NA                         0       NA       NA NA    
## 10 Bom Jesus <NA>    NA                         0       NA       NA NA    
## # … with 27 more rows, and 11 more variables: precision <dbl>, f1_score <dbl>,
## #   median_duration_min <dbl>, median_duration <dbl>, max_duration <dbl>,
## #   max_durationMin <dbl>, median_num_access_node <dbl>,
## #   max_num_access_node <dbl>, all_access_node <dbl>, combination <chr>,
## #   tipo_exp <chr>
…
