Experimento 01 Auditor Crawler
…
metricas_result_exp01 <- metricas_result_exp01 %>%
  filter(total_itens == 61)

metricas_result_exp01 %>% 
    write_csv(here::here("data/resultados_sumarizado_exp01.csv"))

metricas_result_exp01 %>%
  arrange(desc(recall))

## # A tibble: 243 x 19
## # Groups:   municipio, aproach [86]
##    municipio aproach date                total_itens tp_total fn_total fp_total
##    <chr>     <chr>   <dttm>                    <int>    <int>    <int>    <int>
##  1 Campina  Bfs     2019-11-09 23:00:06          61       57        0        4
##  2 Campina  Dfs     2019-11-13 03:48:50          61       56        0        4
##  3 Alcantil  Dfs     2019-11-22 15:33:46          61       57        1        3
##  4 Alcantil  Dfs     2019-11-30 03:37:54          61       57        1        3
##  5 Alcantil  Dfs     2019-12-05 12:49:13          61       57        1        3
##  6 Alcantil  Epsilo 2019-12-01 21:04:58          61       57        1        3
##  7 Alcantil  Epsilo 2019-12-04 03:28:19          61       57        1        3
##  8 Cruz do  Dfs     2019-11-23 02:52:17          61       57        1        3
##  9 Cruz do  Dfs     2019-11-26 18:06:55          61       57        1        3
## 10 Cruz do  Dfs     2019-12-01 21:04:45          61       57        1        3
## #  with 233 more rows, and 12 more variables: recall <dbl>, precision <dbl>,
## #   f1_score <dbl>, median_duration_min <dbl>, median_duration <dbl>,
## #   max_duration <dbl>, max_durationMin <dbl>, median_num_access_node <dbl>,
## #   max_num_access_node <dbl>, all_access_node <dbl>, combination <chr>,
## #   tipo_exp <chr>
…
