Experimento 02 Auditor Crawler
…
metricas_result_exp02 <- metricas_result_exp02 %>%
  filter(total_itens == 48)

metricas_result_exp02 %>% 
    write_csv(here::here("data/resultados_sumarizado_exp.csv"))

metricas_result_exp02 %>%
  arrange(desc(recall))

## # A tibble: 171 x 19
## # Groups:   municipio, aproach [86]
##    municipio aproach date                total_itens tp_total fn_total fp_total
##    <chr>     <chr>   <dttm>                    <int>    <int>    <int>    <int>
##  1 Alcantil  bandit  2019-11-26 11:22:11          48       45        0        3
##  2 Alcantil  bandit  2019-11-28 14:06:36          48       45        0        3
##  3 Alcantil  dfs     2019-11-27 02:22:33          48       45        0        3
##  4 Alcantil  dfs     2019-12-04 22:08:04          48       45        0        3
##  5 Cruz do  bandit  2019-11-28 02:20:04          48       45        0        3
##  6 Cruz do  dfs     2019-11-27 01:23:07          48       45        0        3
##  7 Cruz do  dfs     2019-12-05 01:29:51          48       45        0        3
##  8 Pocinhos  bandit  2019-11-25 21:35:00          48       45        0        3
##  9 Pocinhos  bandit  2019-11-28 15:02:14          48       45        0        3
## 10 Pocinhos  dfs     2019-11-27 02:03:07          48       45        0        3
## #  with 161 more rows, and 12 more variables: recall <dbl>, precision <dbl>,
## #   f1_score <dbl>, median_duration_min <dbl>, median_duration <dbl>,
## #   max_duration <dbl>, max_durationMin <dbl>, median_num_access_node <dbl>,
## #   max_num_access_node <dbl>, all_access_node <dbl>, combination <chr>,
## #   tipo_exp <chr>
…
