Experimento 03 Auditor Crawler
…
metricas_result_exp03 <- metricas_result_exp03 %>%
 filter(total_itens == 48 & recall > 0.46)

metricas_result_exp03 %>% 
  write_csv(here::here("data/resultados_sumarizado_exp03.csv"))

metricas_result_exp03 %>%
  arrange(desc(recall))

## # A tibble: 118 x 19
## # Groups:   municipio, aproach [58]
##    municipio aproach date                total_itens tp_total fn_total fp_total
##    <chr>     <chr>   <dttm>                    <int>    <int>    <int>    <int>
##  1 Cruz do  bandit  2019-12-11 03:45:20          48       45        0        3
##  2 Pocinhos  bandit  2019-12-11 01:28:37          48       45        0        3
##  3 Pocinhos  bandit  2019-12-12 17:50:40          48       45        0        3
##  4 Remgio   bfs     2019-12-10 22:30:46          48       46        1        1
##  5 Remgio   bfs     2019-12-11 22:54:44          48       46        1        1
##  6 Alcantil  bandit  2019-12-12 09:33:51          48       44        1        3
##  7 Alcantil  bandit  2019-12-12 19:04:58          48       44        1        3
##  8 Alcantil  bfs     2019-12-11 16:02:30          48       44        1        3
##  9 Alcantil  bfs     2019-12-12 16:21:33          48       44        1        3
## 10 Belm do bandit  2019-12-11 15:15:01          48       44        1        3
## #  with 108 more rows, and 12 more variables: recall <dbl>, precision <dbl>,
## #   f1_score <dbl>, median_duration_min <dbl>, median_duration <dbl>,
## #   max_duration <dbl>, max_durationMin <dbl>, median_num_access_node <dbl>,
## #   max_num_access_node <dbl>, all_access_node <dbl>, combination <chr>,
## #   tipo_exp <chr>
…
